schedName, name, group
publishAssetSchedulerFactory,solrAssetDeleteJob,ASSET_SOLR_PUBLISHER
publishAssetSchedulerFactory,solrAssetUpdateJob,ASSET_SOLR_PUBLISHER
publishAssetSchedulerFactory,solrNetworkUpdateJob,ASSET_SOLR_PUBLISHER
publishOfferSchedulerFactory,solrOfferUpdateJob,ASSET_SOLR_PUBLISHER
publishPolicySchedulerFactory,solrPolicyUpdateJob,ASSET_SOLR_PUBLISHER
rollupServiceSchedulerFactory,CHANNEL_ROLLUP_JOB,ROLLUP_SOLR_JOB
rollupServiceSchedulerFactory,MISSING_DAM_DATA_REMOVAL_JOB,ROLLUP_SOLR_JOB
rollupServiceSchedulerFactory,POLICY_ROLLUP_JOB,ROLLUP_SOLR_JOB
rollupServiceSchedulerFactory,PROGRAM_ROLLUP_JOB,ROLLUP_SOLR_JOB
rollupServiceSchedulerFactory,SERIES_ROLLUP_JOB,ROLLUP_SOLR_JOB
rollupServiceSchedulerFactory,SHARED_REF_ROLLUP_JOB,ROLLUP_SOLR_JOB
rollupServiceSchedulerFactory,VOD_ROLLUP_JOB,ROLLUP_SOLR_JOB